MOOREC/simulation/qsim/Moore.msim.vcd
$comment
	File created using the following command:
		vcd file Moore.msim.vcd -direction
$end
$date
	Wed Oct 12 17:37:24 2022
$end
$version
	ModelSim Version 10.5b
$end
$timescale
	1ps
$end

$scope module moorec_vhd_vec_tst $end
$var wire 1 ! clk $end
$var wire 1 " Q0 $end
$var wire 1 # Q1 $end
$var wire 1 $ Q2 $end

$scope module i1 $end
$var wire 1 % gnd $end
$var wire 1 & vcc $end
$var wire 1 ' unknown $end
$var wire 1 ( devoe $end
$var wire 1 ) devclrn $end
$var wire 1 * devpor $end
$var wire 1 + ww_devoe $end
$var wire 1 , ww_devclrn $end
$var wire 1 - ww_devpor $end
$var wire 1 . ww_clk $end
$var wire 1 / ww_Q0 $end
$var wire 1 0 ww_Q1 $end
$var wire 1 1 ww_Q2 $end
$var wire 1 2 \Q0~input_o\ $end
$var wire 1 3 \Q1~input_o\ $end
$var wire 1 4 \Q2~input_o\ $end
$var wire 1 5 \~QUARTUS_CREATED_GND~I_combout\ $end
$var wire 1 6 \clk~input_o\ $end
$var wire 1 7 \clk~inputCLKENA0_outclk\ $end
$var wire 1 8 \u2|Q~0_combout\ $end
$var wire 1 9 \u2|Q~q\ $end
$var wire 1 : \u2|Q~DUPLICATE_q\ $end
$var wire 1 ; \u1|D1~combout\ $end
$var wire 1 < \u3|Q~q\ $end
$var wire 1 = \u3|Q~DUPLICATE_q\ $end
$var wire 1 > \u1|D2~0_combout\ $end
$var wire 1 ? \u4|Q~q\ $end
$var wire 1 @ \u3|ALT_INV_Q~DUPLICATE_q\ $end
$var wire 1 A \u2|ALT_INV_Q~DUPLICATE_q\ $end
$var wire 1 B \u4|ALT_INV_Q~q\ $end
$var wire 1 C \u3|ALT_INV_Q~q\ $end
$var wire 1 D \u2|ALT_INV_Q~q\ $end
$upscope $end
$upscope $end
$enddefinitions $end
#0
$dumpvars
0!
0"
0#
0$
0%
1&
x'
1(
1)
1*
1+
1,
1-
0.
0/
00
01
02
03
04
x5
06
07
18
09
0:
0;
0<
0=
0>
0?
1@
1A
1B
1C
1D
$end
#500000
1!
1.
16
17
19
1:
0A
0D
08
1;
1/
1"
12
#1000000
0!
0.
06
07
#1500000
1!
1.
16
17
09
0:
1<
1=
0@
0C
1A
1D
18
10
0/
1#
0"
02
13
#2000000
0!
0.
06
07
#2500000
1!
1.
16
17
19
1:
0A
0D
08
1>
0;
1/
1"
12
#3000000
0!
0.
06
07
#3500000
1!
1.
16
17
09
0:
0<
0=
1?
0B
1@
1C
1A
1D
18
11
00
0/
1$
0#
0"
02
03
14
#4000000
0!
0.
06
07
#4500000
1!
1.
16
17
19
1:
0A
0D
08
1;
1/
1"
12
#5000000
0!
0.
06
07
#5500000
1!
1.
16
17
09
0:
1<
1=
0@
0C
1A
1D
18
10
0/
1#
0"
02
13
#6000000
0!
0.
06
07
#6500000
1!
1.
16
17
19
1:
0A
0D
08
0>
0;
1/
1"
12
#7000000
0!
0.
06
07
#7500000
1!
1.
16
17
09
0:
0<
0=
0?
1B
1@
1C
1A
1D
18
01
00
0/
0$
0#
0"
02
03
04
#8000000
0!
0.
06
07
#8500000
1!
1.
16
17
19
1:
0A
0D
08
1;
1/
1"
12
#9000000
0!
0.
06
07
#9500000
1!
1.
16
17
09
0:
1<
1=
0@
0C
1A
1D
18
10
0/
1#
0"
02
13
