MOOREF/simulation/qsim/Moore.msim.vcd
$comment
	File created using the following command:
		vcd file Moore.msim.vcd -direction
$end
$date
	Wed Oct 12 18:13:36 2022
$end
$version
	ModelSim Version 10.5b
$end
$timescale
	1ps
$end

$scope module mooref_vhd_vec_tst $end
$var wire 1 ! clk $end
$var wire 1 " reset $end
$var wire 1 # salMoore [2] $end
$var wire 1 $ salMoore [1] $end
$var wire 1 % salMoore [0] $end

$scope module i1 $end
$var wire 1 & gnd $end
$var wire 1 ' vcc $end
$var wire 1 ( unknown $end
$var wire 1 ) devoe $end
$var wire 1 * devclrn $end
$var wire 1 + devpor $end
$var wire 1 , ww_devoe $end
$var wire 1 - ww_devclrn $end
$var wire 1 . ww_devpor $end
$var wire 1 / ww_clk $end
$var wire 1 0 ww_reset $end
$var wire 1 1 ww_salMoore [2] $end
$var wire 1 2 ww_salMoore [1] $end
$var wire 1 3 ww_salMoore [0] $end
$var wire 1 4 \~QUARTUS_CREATED_GND~I_combout\ $end
$var wire 1 5 \clk~input_o\ $end
$var wire 1 6 \clk~inputCLKENA0_outclk\ $end
$var wire 1 7 \reset~input_o\ $end
$var wire 1 8 \present_state~0_combout\ $end
$var wire 1 9 \present_state~1_combout\ $end
$var wire 1 : \present_state~2_combout\ $end
$var wire 1 ; present_state [2] $end
$var wire 1 < present_state [1] $end
$var wire 1 = present_state [0] $end
$var wire 1 > \ALT_INV_reset~input_o\ $end
$var wire 1 ? ALT_INV_present_state [2] $end
$var wire 1 @ ALT_INV_present_state [1] $end
$var wire 1 A ALT_INV_present_state [0] $end
$upscope $end
$upscope $end
$enddefinitions $end
#0
$dumpvars
0!
0"
0&
1'
x(
1)
1*
1+
1,
1-
1.
0/
00
x4
05
06
07
18
09
0:
1>
01
02
03
0;
0<
0=
1?
1@
1A
0#
0$
0%
$end
#500
1!
1/
15
16
1=
0A
08
19
13
1%
#1000
0!
0/
05
06
#1500
1!
1/
15
16
0=
1<
0@
1A
18
12
03
0%
1$
#2000
0!
0/
05
06
#2500
1!
1/
15
16
1=
0A
08
09
1:
13
1%
#3000
0!
0/
05
06
#3500
1!
1/
15
16
0=
0<
1;
0?
1@
1A
18
11
02
03
0%
0$
1#
#4000
0!
0/
05
06
#4500
1!
1/
15
16
1=
0A
08
19
13
1%
#5000
0!
0/
05
06
#5500
1!
1/
15
16
0=
1<
0@
1A
18
12
03
0%
1$
#6000
0!
0/
05
06
#6500
1!
1/
15
16
1=
0A
08
09
0:
13
1%
#7000
0!
0/
05
06
#7500
1!
1/
15
16
0=
0<
0;
1?
1@
1A
18
01
02
03
0%
0$
0#
#8000
0!
0/
05
06
#8500
1!
1/
15
16
1=
0A
08
19
13
1%
#9000
0!
0/
05
06
#9500
1!
1/
15
16
0=
1<
0@
1A
18
12
03
0%
1$
