LABORATORIO/PRACTICA_1/simulation/qsim/Contador.msim.vcd
$comment
	File created using the following command:
		vcd file Contador.msim.vcd -direction
$end
$date
	Tue Sep 13 20:51:57 2022
$end
$version
	ModelSim Version 10.5b
$end
$timescale
	1ps
$end

$scope module contador_vhd_vec_tst $end
$var wire 1 ! clk $end
$var wire 1 " ssg [6] $end
$var wire 1 # ssg [5] $end
$var wire 1 $ ssg [4] $end
$var wire 1 % ssg [3] $end
$var wire 1 & ssg [2] $end
$var wire 1 ' ssg [1] $end
$var wire 1 ( ssg [0] $end

$scope module i1 $end
$var wire 1 ) gnd $end
$var wire 1 * vcc $end
$var wire 1 + unknown $end
$var wire 1 , devoe $end
$var wire 1 - devclrn $end
$var wire 1 . devpor $end
$var wire 1 / ww_devoe $end
$var wire 1 0 ww_devclrn $end
$var wire 1 1 ww_devpor $end
$var wire 1 2 ww_clk $end
$var wire 1 3 ww_ssg [6] $end
$var wire 1 4 ww_ssg [5] $end
$var wire 1 5 ww_ssg [4] $end
$var wire 1 6 ww_ssg [3] $end
$var wire 1 7 ww_ssg [2] $end
$var wire 1 8 ww_ssg [1] $end
$var wire 1 9 ww_ssg [0] $end
$var wire 1 : \~QUARTUS_CREATED_ADC1~_CHSEL_bus\ [4] $end
$var wire 1 ; \~QUARTUS_CREATED_ADC1~_CHSEL_bus\ [3] $end
$var wire 1 < \~QUARTUS_CREATED_ADC1~_CHSEL_bus\ [2] $end
$var wire 1 = \~QUARTUS_CREATED_ADC1~_CHSEL_bus\ [1] $end
$var wire 1 > \~QUARTUS_CREATED_ADC1~_CHSEL_bus\ [0] $end
$var wire 1 ? \~QUARTUS_CREATED_ADC2~_CHSEL_bus\ [4] $end
$var wire 1 @ \~QUARTUS_CREATED_ADC2~_CHSEL_bus\ [3] $end
$var wire 1 A \~QUARTUS_CREATED_ADC2~_CHSEL_bus\ [2] $end
$var wire 1 B \~QUARTUS_CREATED_ADC2~_CHSEL_bus\ [1] $end
$var wire 1 C \~QUARTUS_CREATED_ADC2~_CHSEL_bus\ [0] $end
$var wire 1 D \u1|clkl~clkctrl_INCLK_bus\ [3] $end
$var wire 1 E \u1|clkl~clkctrl_INCLK_bus\ [2] $end
$var wire 1 F \u1|clkl~clkctrl_INCLK_bus\ [1] $end
$var wire 1 G \u1|clkl~clkctrl_INCLK_bus\ [0] $end
$var wire 1 H \clk~inputclkctrl_INCLK_bus\ [3] $end
$var wire 1 I \clk~inputclkctrl_INCLK_bus\ [2] $end
$var wire 1 J \clk~inputclkctrl_INCLK_bus\ [1] $end
$var wire 1 K \clk~inputclkctrl_INCLK_bus\ [0] $end
$var wire 1 L \~QUARTUS_CREATED_GND~I_combout\ $end
$var wire 1 M \~QUARTUS_CREATED_UNVM~~busy\ $end
$var wire 1 N \~QUARTUS_CREATED_ADC1~~eoc\ $end
$var wire 1 O \~QUARTUS_CREATED_ADC2~~eoc\ $end
$var wire 1 P \ssg[0]~output_o\ $end
$var wire 1 Q \ssg[1]~output_o\ $end
$var wire 1 R \ssg[2]~output_o\ $end
$var wire 1 S \ssg[3]~output_o\ $end
$var wire 1 T \ssg[4]~output_o\ $end
$var wire 1 U \ssg[5]~output_o\ $end
$var wire 1 V \ssg[6]~output_o\ $end
$var wire 1 W \clk~input_o\ $end
$var wire 1 X \clk~inputclkctrl_outclk\ $end
$var wire 1 Y \u1|Add0~0_combout\ $end
$var wire 1 Z \u1|contador~1_combout\ $end
$var wire 1 [ \u1|Add0~1\ $end
$var wire 1 \ \u1|Add0~2_combout\ $end
$var wire 1 ] \u1|Add0~3\ $end
$var wire 1 ^ \u1|Add0~4_combout\ $end
$var wire 1 _ \u1|Add0~5\ $end
$var wire 1 ` \u1|Add0~6_combout\ $end
$var wire 1 a \u1|Add0~7\ $end
$var wire 1 b \u1|Add0~8_combout\ $end
$var wire 1 c \u1|Add0~9\ $end
$var wire 1 d \u1|Add0~10_combout\ $end
$var wire 1 e \u1|Add0~11\ $end
$var wire 1 f \u1|Add0~12_combout\ $end
$var wire 1 g \u1|contador~0_combout\ $end
$var wire 1 h \u1|Add0~13\ $end
$var wire 1 i \u1|Add0~14_combout\ $end
$var wire 1 j \u1|Add0~15\ $end
$var wire 1 k \u1|Add0~16_combout\ $end
$var wire 1 l \u1|Add0~17\ $end
$var wire 1 m \u1|Add0~18_combout\ $end
$var wire 1 n \u1|Add0~19\ $end
$var wire 1 o \u1|Add0~20_combout\ $end
$var wire 1 p \u1|Add0~21\ $end
$var wire 1 q \u1|Add0~22_combout\ $end
$var wire 1 r \u1|contador~2_combout\ $end
$var wire 1 s \u1|Add0~23\ $end
$var wire 1 t \u1|Add0~24_combout\ $end
$var wire 1 u \u1|contador~3_combout\ $end
$var wire 1 v \u1|Add0~25\ $end
$var wire 1 w \u1|Add0~26_combout\ $end
$var wire 1 x \u1|contador~4_combout\ $end
$var wire 1 y \u1|Add0~27\ $end
$var wire 1 z \u1|Add0~28_combout\ $end
$var wire 1 { \u1|contador~5_combout\ $end
$var wire 1 | \u1|Add0~29\ $end
$var wire 1 } \u1|Add0~30_combout\ $end
$var wire 1 ~ \u1|Add0~31\ $end
$var wire 1 !! \u1|Add0~32_combout\ $end
$var wire 1 "! \u1|contador~6_combout\ $end
$var wire 1 #! \u1|Add0~33\ $end
$var wire 1 $! \u1|Add0~34_combout\ $end
$var wire 1 %! \u1|Add0~35\ $end
$var wire 1 &! \u1|Add0~36_combout\ $end
$var wire 1 '! \u1|contador~7_combout\ $end
$var wire 1 (! \u1|Add0~37\ $end
$var wire 1 )! \u1|Add0~38_combout\ $end
$var wire 1 *! \u1|contador~8_combout\ $end
$var wire 1 +! \u1|Add0~39\ $end
$var wire 1 ,! \u1|Add0~40_combout\ $end
$var wire 1 -! \u1|contador~10_combout\ $end
$var wire 1 .! \u1|Add0~41\ $end
$var wire 1 /! \u1|Add0~42_combout\ $end
$var wire 1 0! \u1|contador~11_combout\ $end
$var wire 1 1! \u1|Add0~43\ $end
$var wire 1 2! \u1|Add0~44_combout\ $end
$var wire 1 3! \u1|contador~12_combout\ $end
$var wire 1 4! \u1|Add0~45\ $end
$var wire 1 5! \u1|Add0~46_combout\ $end
$var wire 1 6! \u1|Add0~47\ $end
$var wire 1 7! \u1|Add0~48_combout\ $end
$var wire 1 8! \u1|contador~9_combout\ $end
$var wire 1 9! \u1|Equal0~5_combout\ $end
$var wire 1 :! \u1|Equal0~6_combout\ $end
$var wire 1 ;! \u1|Equal0~1_combout\ $end
$var wire 1 <! \u1|Equal0~2_combout\ $end
$var wire 1 =! \u1|Equal0~3_combout\ $end
$var wire 1 >! \u1|Equal0~0_combout\ $end
$var wire 1 ?! \u1|Equal0~4_combout\ $end
$var wire 1 @! \u1|Equal0~7_combout\ $end
$var wire 1 A! \u1|clkl~0_combout\ $end
$var wire 1 B! \u1|clkl~feeder_combout\ $end
$var wire 1 C! \u1|clkl~q\ $end
$var wire 1 D! \u1|clkl~clkctrl_outclk\ $end
$var wire 1 E! \u2|Add0~0_combout\ $end
$var wire 1 F! \u2|Add0~1\ $end
$var wire 1 G! \u2|Add0~2_combout\ $end
$var wire 1 H! \u2|Add0~7\ $end
$var wire 1 I! \u2|Add0~8_combout\ $end
$var wire 1 J! \u2|Add0~9\ $end
$var wire 1 K! \u2|Add0~10_combout\ $end
$var wire 1 L! \u2|Add0~11\ $end
$var wire 1 M! \u2|Add0~12_combout\ $end
$var wire 1 N! \u2|Add0~13\ $end
$var wire 1 O! \u2|Add0~14_combout\ $end
$var wire 1 P! \u2|Add0~15\ $end
$var wire 1 Q! \u2|Add0~16_combout\ $end
$var wire 1 R! \u2|Add0~17\ $end
$var wire 1 S! \u2|Add0~18_combout\ $end
$var wire 1 T! \u2|Add0~19\ $end
$var wire 1 U! \u2|Add0~20_combout\ $end
$var wire 1 V! \u2|Add0~21\ $end
$var wire 1 W! \u2|Add0~22_combout\ $end
$var wire 1 X! \u2|Add0~23\ $end
$var wire 1 Y! \u2|Add0~24_combout\ $end
$var wire 1 Z! \u2|Add0~25\ $end
$var wire 1 [! \u2|Add0~26_combout\ $end
$var wire 1 \! \u2|Add0~27\ $end
$var wire 1 ]! \u2|Add0~28_combout\ $end
$var wire 1 ^! \u2|Add0~29\ $end
$var wire 1 _! \u2|Add0~30_combout\ $end
$var wire 1 `! \u2|Add0~31\ $end
$var wire 1 a! \u2|Add0~32_combout\ $end
$var wire 1 b! \u2|Add0~33\ $end
$var wire 1 c! \u2|Add0~34_combout\ $end
$var wire 1 d! \u2|Add0~35\ $end
$var wire 1 e! \u2|Add0~36_combout\ $end
$var wire 1 f! \u2|Add0~37\ $end
$var wire 1 g! \u2|Add0~38_combout\ $end
$var wire 1 h! \u2|Add0~39\ $end
$var wire 1 i! \u2|Add0~40_combout\ $end
$var wire 1 j! \u2|Add0~41\ $end
$var wire 1 k! \u2|Add0~42_combout\ $end
$var wire 1 l! \u2|Add0~43\ $end
$var wire 1 m! \u2|Add0~44_combout\ $end
$var wire 1 n! \u2|Add0~45\ $end
$var wire 1 o! \u2|Add0~46_combout\ $end
$var wire 1 p! \u2|Equal0~6_combout\ $end
$var wire 1 q! \u2|Equal0~3_combout\ $end
$var wire 1 r! \u2|Equal0~1_combout\ $end
$var wire 1 s! \u2|Equal0~2_combout\ $end
$var wire 1 t! \u2|Equal0~0_combout\ $end
$var wire 1 u! \u2|Equal0~4_combout\ $end
$var wire 1 v! \u2|Equal0~5_combout\ $end
$var wire 1 w! \u2|Add0~47\ $end
$var wire 1 x! \u2|Add0~48_combout\ $end
$var wire 1 y! \u2|Add0~49\ $end
$var wire 1 z! \u2|Add0~50_combout\ $end
$var wire 1 {! \u2|Add0~51\ $end
$var wire 1 |! \u2|Add0~52_combout\ $end
$var wire 1 }! \u2|Add0~53\ $end
$var wire 1 ~! \u2|Add0~54_combout\ $end
$var wire 1 !" \u2|Add0~55\ $end
$var wire 1 "" \u2|Add0~56_combout\ $end
$var wire 1 #" \u2|Add0~57\ $end
$var wire 1 $" \u2|Add0~58_combout\ $end
$var wire 1 %" \u2|Add0~59\ $end
$var wire 1 &" \u2|Add0~60_combout\ $end
$var wire 1 '" \u2|Add0~61\ $end
$var wire 1 (" \u2|Add0~62_combout\ $end
$var wire 1 )" \u2|Equal0~8_combout\ $end
$var wire 1 *" \u2|Equal0~7_combout\ $end
$var wire 1 +" \u2|Equal0~9_combout\ $end
$var wire 1 ," \u2|Equal0~10_combout\ $end
$var wire 1 -" \u2|conteo~1_combout\ $end
$var wire 1 ." \u2|Add0~3\ $end
$var wire 1 /" \u2|Add0~4_combout\ $end
$var wire 1 0" \u2|Add0~5\ $end
$var wire 1 1" \u2|Add0~6_combout\ $end
$var wire 1 2" \u2|conteo~0_combout\ $end
$var wire 1 3" \u3|WideOr5~combout\ $end
$var wire 1 4" \u3|WideOr4~4_combout\ $end
$var wire 1 5" \u3|WideOr3~combout\ $end
$var wire 1 6" \u3|WideOr2~0_combout\ $end
$var wire 1 7" \u3|WideOr1~combout\ $end
$var wire 1 8" \u3|WideOr0~combout\ $end
$var wire 1 9" \u3|b\ [6] $end
$var wire 1 :" \u3|b\ [5] $end
$var wire 1 ;" \u3|b\ [4] $end
$var wire 1 <" \u3|b\ [3] $end
$var wire 1 =" \u3|b\ [2] $end
$var wire 1 >" \u3|b\ [1] $end
$var wire 1 ?" \u3|b\ [0] $end
$var wire 1 @" \u2|conteo\ [31] $end
$var wire 1 A" \u2|conteo\ [30] $end
$var wire 1 B" \u2|conteo\ [29] $end
$var wire 1 C" \u2|conteo\ [28] $end
$var wire 1 D" \u2|conteo\ [27] $end
$var wire 1 E" \u2|conteo\ [26] $end
$var wire 1 F" \u2|conteo\ [25] $end
$var wire 1 G" \u2|conteo\ [24] $end
$var wire 1 H" \u2|conteo\ [23] $end
$var wire 1 I" \u2|conteo\ [22] $end
$var wire 1 J" \u2|conteo\ [21] $end
$var wire 1 K" \u2|conteo\ [20] $end
$var wire 1 L" \u2|conteo\ [19] $end
$var wire 1 M" \u2|conteo\ [18] $end
$var wire 1 N" \u2|conteo\ [17] $end
$var wire 1 O" \u2|conteo\ [16] $end
$var wire 1 P" \u2|conteo\ [15] $end
$var wire 1 Q" \u2|conteo\ [14] $end
$var wire 1 R" \u2|conteo\ [13] $end
$var wire 1 S" \u2|conteo\ [12] $end
$var wire 1 T" \u2|conteo\ [11] $end
$var wire 1 U" \u2|conteo\ [10] $end
$var wire 1 V" \u2|conteo\ [9] $end
$var wire 1 W" \u2|conteo\ [8] $end
$var wire 1 X" \u2|conteo\ [7] $end
$var wire 1 Y" \u2|conteo\ [6] $end
$var wire 1 Z" \u2|conteo\ [5] $end
$var wire 1 [" \u2|conteo\ [4] $end
$var wire 1 \" \u2|conteo\ [3] $end
$var wire 1 ]" \u2|conteo\ [2] $end
$var wire 1 ^" \u2|conteo\ [1] $end
$var wire 1 _" \u2|conteo\ [0] $end
$var wire 1 `" \u1|contador\ [24] $end
$var wire 1 a" \u1|contador\ [23] $end
$var wire 1 b" \u1|contador\ [22] $end
$var wire 1 c" \u1|contador\ [21] $end
$var wire 1 d" \u1|contador\ [20] $end
$var wire 1 e" \u1|contador\ [19] $end
$var wire 1 f" \u1|contador\ [18] $end
$var wire 1 g" \u1|contador\ [17] $end
$var wire 1 h" \u1|contador\ [16] $end
$var wire 1 i" \u1|contador\ [15] $end
$var wire 1 j" \u1|contador\ [14] $end
$var wire 1 k" \u1|contador\ [13] $end
$var wire 1 l" \u1|contador\ [12] $end
$var wire 1 m" \u1|contador\ [11] $end
$var wire 1 n" \u1|contador\ [10] $end
$var wire 1 o" \u1|contador\ [9] $end
$var wire 1 p" \u1|contador\ [8] $end
$var wire 1 q" \u1|contador\ [7] $end
$var wire 1 r" \u1|contador\ [6] $end
$var wire 1 s" \u1|contador\ [5] $end
$var wire 1 t" \u1|contador\ [4] $end
$var wire 1 u" \u1|contador\ [3] $end
$var wire 1 v" \u1|contador\ [2] $end
$var wire 1 w" \u1|contador\ [1] $end
$var wire 1 x" \u1|contador\ [0] $end
$upscope $end
$upscope $end
$enddefinitions $end
#0
$dumpvars
0!
0)
1*
x+
1,
1-
1.
1/
10
11
02
0L
zM
zN
zO
0P
0Q
0R
0S
0T
0U
1V
0W
0X
1Y
1Z
0[
0\
1]
0^
0_
0`
1a
0b
0c
0d
1e
0f
0g
0h
0i
1j
0k
0l
0m
1n
0o
0p
0q
0r
1s
0t
0u
0v
0w
0x
1y
0z
0{
0|
0}
1~
0!!
0"!
0#!
0$!
1%!
0&!
0'!
0(!
0)!
0*!
1+!
0,!
0-!
0.!
0/!
00!
11!
02!
03!
04!
05!
16!
07!
08!
09!
0:!
1;!
0<!
0=!
0>!
0?!
0@!
0A!
0B!
0C!
0D!
1E!
0F!
0G!
1H!
0I!
0J!
0K!
1L!
0M!
0N!
0O!
1P!
0Q!
0R!
0S!
1T!
0U!
0V!
0W!
1X!
0Y!
0Z!
0[!
1\!
0]!
0^!
0_!
1`!
0a!
0b!
0c!
1d!
0e!
0f!
0g!
1h!
0i!
0j!
0k!
1l!
0m!
0n!
0o!
1p!
1q!
1r!
1s!
0t!
0u!
1v!
1w!
0x!
0y!
0z!
1{!
0|!
0}!
0~!
1!"
0""
0#"
0$"
1%"
0&"
0'"
0("
1)"
1*"
1+"
0,"
0-"
1."
0/"
00"
01"
02"
03"
04"
05"
06"
07"
18"
1"
0#
0$
0%
0&
0'
0(
13
04
05
06
07
08
09
x9"
x:"
x;"
x<"
0="
x>"
x?"
0@"
0A"
0B"
0C"
0D"
0E"
0F"
0G"
0H"
0I"
0J"
0K"
0L"
0M"
0N"
0O"
0P"
0Q"
0R"
0S"
0T"
0U"
0V"
0W"
0X"
0Y"
0Z"
0["
0\"
0]"
0^"
0_"
0`"
0a"
0b"
0c"
0d"
0e"
0f"
0g"
0h"
0i"
0j"
0k"
0l"
0m"
0n"
0o"
0p"
0q"
0r"
0s"
0t"
0u"
0v"
0w"
0x"
1H
1I
1J
0K
1D
1E
1F
0G
0:
0;
0<
0=
0>
0?
0@
0A
0B
0C
$end
#5000
1!
12
1W
1K
1X
1x"
0Y
1[
0;!
1\
0Z
#10000
0!
02
0W
0K
0X
#15000
1!
12
1W
1K
1X
0x"
1w"
0\
0]
1Y
0[
1\
1]
1Z
1^
0^
#20000
0!
02
0W
0K
0X
#25000
1!
12
1W
1K
1X
1x"
0Y
1[
0\
0]
0Z
1^
#30000
0!
02
0W
0K
0X
#35000
1!
12
1W
1K
1X
0x"
0w"
1v"
0^
1_
1\
1]
1Y
0[
0\
1Z
1^
0_
1`
0`
#40000
0!
02
0W
0K
0X
#45000
1!
12
1W
1K
1X
1x"
0Y
1[
1\
0Z
#50000
0!
02
0W
0K
0X
#55000
1!
12
1W
1K
1X
0x"
1w"
0\
0]
1Y
0[
1\
1]
1Z
0^
1_
1`
1^
0_
0`
#60000
0!
02
0W
0K
0X
#65000
1!
12
1W
1K
1X
1x"
0Y
1[
0\
0]
0Z
0^
1_
1`
#70000
0!
02
0W
0K
0X
#75000
1!
12
1W
1K
1X
0x"
0w"
0v"
1u"
0`
0a
1^
0_
1\
1]
1Y
0[
0\
1Z
0^
1`
1a
1b
0b
#80000
0!
02
0W
0K
0X
#85000
1!
12
1W
1K
1X
1x"
0Y
1[
1\
0Z
#90000
0!
02
0W
0K
0X
#95000
1!
12
1W
1K
1X
0x"
1w"
0\
0]
1Y
0[
1\
1]
1Z
1^
0^
